%!PS-Adobe-3.0 EPSF-3.0
%%CreationDate: Fri Apr 10 07:32:18 2015
%%LanguageLevel: 3
%%BoundingBox: 0 0 250 250
%%EndComments
newpath
0.00 250.00 moveto
250.00 250.00 lineto
250.00 0.00 lineto
0.00 0.00 lineto
0.00 250.00 lineto
closepath
1.000 1.000 1.000 setrgbcolor
fill
newpath
134.89 217.63 moveto
144.02 217.48 153.24 217.90 162.26 216.15 curveto
178.26 213.35 193.88 205.97 204.60 193.51 curveto
214.68 181.89 219.72 166.33 219.26 151.03 curveto
219.24 144.30 217.78 137.71 216.39 131.15 curveto
212.04 138.35 206.79 144.97 201.24 151.28 curveto
199.63 152.78 199.96 155.07 199.90 157.06 curveto
200.21 172.13 195.09 187.60 184.61 198.62 curveto
175.88 208.02 163.77 213.78 151.27 216.12 curveto
145.86 217.07 140.34 216.97 134.89 217.63 curveto
closepath
0.486 0.608 0.239 setrgbcolor
fill
newpath
121.66 213.54 moveto
136.98 214.50 152.99 213.10 166.75 205.78 curveto
178.58 199.61 188.11 188.94 192.21 176.17 curveto
194.30 169.95 195.03 163.37 195.12 156.83 curveto
189.80 161.26 184.11 165.21 178.27 168.92 curveto
176.99 181.11 171.25 192.82 161.97 200.90 curveto
154.27 207.77 144.24 211.84 134.01 212.85 curveto
129.90 213.16 125.78 213.32 121.66 213.54 curveto
closepath
0.796 0.149 0.161 setrgbcolor
fill
newpath
122.13 208.37 moveto
127.25 209.43 133.42 210.44 137.77 206.80 curveto
140.45 204.56 143.24 201.59 143.35 197.91 curveto
142.68 194.86 139.75 193.12 137.04 192.12 curveto
124.28 187.35 110.29 188.78 97.27 185.22 curveto
82.66 180.17 68.24 174.46 54.38 167.60 curveto
52.32 166.66 50.66 165.11 49.35 163.30 curveto
59.71 162.40 70.35 163.85 79.90 168.02 curveto
94.19 173.64 108.36 181.02 124.02 181.54 curveto
144.63 181.86 164.12 171.72 178.72 157.70 curveto
191.06 146.33 201.15 132.87 212.31 120.40 curveto
218.83 112.75 226.43 106.15 233.98 99.55 curveto
235.26 99.25 236.53 98.93 237.80 98.60 curveto
222.19 99.77 206.57 101.08 190.90 101.33 curveto
178.40 102.15 165.90 103.63 153.77 106.84 curveto
140.71 110.52 128.92 117.43 117.48 124.54 curveto
106.06 131.14 93.54 137.55 79.97 136.98 curveto
72.14 137.31 63.92 135.20 56.45 138.40 curveto
50.33 140.59 44.46 145.38 43.31 152.09 curveto
42.56 159.94 47.70 167.26 46.10 175.14 curveto
45.11 177.87 42.90 179.86 40.97 181.92 curveto
55.32 185.28 64.15 199.36 78.64 202.32 curveto
93.00 205.34 107.89 204.69 122.13 208.37 curveto
closepath
0.890 0.612 0.208 setrgbcolor
fill
newpath
21.86 177.98 moveto
24.72 179.73 28.76 180.92 31.72 178.76 curveto
35.58 175.80 36.33 170.36 35.75 165.82 curveto
35.22 162.52 33.87 158.80 30.59 157.33 curveto
27.20 156.22 24.03 158.31 21.02 159.52 curveto
25.81 149.20 35.27 140.97 46.43 138.32 curveto
53.48 136.14 60.89 136.20 68.14 135.22 curveto
75.94 134.07 83.88 133.63 91.49 131.44 curveto
105.08 127.88 116.52 119.41 128.70 112.80 curveto
137.71 108.03 146.36 102.37 156.13 99.21 curveto
175.69 92.59 196.69 92.98 217.07 93.48 curveto
225.72 94.47 234.90 95.68 243.02 91.64 curveto
226.89 90.67 210.89 88.18 194.75 87.26 curveto
179.87 86.73 164.59 87.43 150.50 92.66 curveto
142.53 95.91 135.20 100.49 127.91 105.02 curveto
111.67 114.89 93.73 122.15 74.97 125.43 curveto
58.37 128.37 41.57 131.33 25.93 137.85 curveto
19.69 140.54 13.34 143.85 9.24 149.47 curveto
5.86 153.92 6.22 160.36 9.11 164.97 curveto
12.25 170.22 16.71 174.69 21.86 177.98 curveto
closepath
0.498 0.129 0.133 setrgbcolor
fill
newpath
114.38 174.57 moveto
118.50 175.57 122.78 175.89 126.98 175.22 curveto
137.65 173.66 148.24 170.31 157.21 164.18 curveto
167.17 157.36 175.24 148.26 183.67 139.71 curveto
191.27 131.94 199.93 125.27 207.24 117.21 curveto
209.86 114.20 212.76 111.04 213.52 106.99 curveto
214.29 103.89 210.72 101.73 208.06 101.50 curveto
199.20 101.03 190.32 102.37 181.81 104.78 curveto
169.55 108.46 157.24 112.17 145.65 117.64 curveto
135.91 122.07 130.51 132.06 121.55 137.57 curveto
118.39 139.54 114.70 140.39 111.05 140.82 curveto
95.06 142.59 78.81 142.08 62.98 145.26 curveto
59.83 146.14 55.83 146.91 54.35 150.21 curveto
55.30 154.27 59.66 156.15 62.98 158.00 curveto
79.31 165.70 96.90 170.31 114.38 174.57 curveto
closepath
0.796 0.149 0.161 setrgbcolor
fill
newpath
134.32 162.60 moveto
139.41 163.96 145.13 164.03 150.01 161.90 curveto
152.35 161.04 152.62 157.71 150.88 156.13 curveto
145.50 150.98 135.67 151.23 130.85 157.00 curveto
129.04 159.58 131.91 162.10 134.32 162.60 curveto
closepath
0.498 0.129 0.133 setrgbcolor
fill
newpath
90.44 160.57 moveto
94.71 160.79 99.32 161.19 103.27 159.26 curveto
104.63 158.42 106.46 156.47 105.20 154.86 curveto
100.38 147.98 88.32 147.99 83.71 155.10 curveto
83.18 158.81 87.40 160.51 90.44 160.57 curveto
closepath
0.498 0.129 0.133 setrgbcolor
fill
newpath
163.38 131.51 moveto
169.48 132.32 175.98 130.65 180.83 126.84 curveto
182.27 125.47 184.37 123.29 182.81 121.28 curveto
181.55 118.81 178.50 118.29 175.99 118.18 curveto
170.12 117.77 163.68 120.24 160.47 125.34 curveto
158.74 127.74 160.40 131.38 163.38 131.51 curveto
closepath
0.498 0.129 0.133 setrgbcolor
fill
newpath
8.70 104.88 moveto
9.26 113.84 11.86 122.54 14.88 130.95 curveto
14.17 125.28 12.31 119.78 12.19 114.04 curveto
12.04 107.71 11.70 101.22 13.64 95.10 curveto
17.17 79.14 28.43 65.35 42.95 58.03 curveto
57.29 50.42 74.00 48.62 89.97 49.99 curveto
116.82 52.23 142.65 63.85 162.72 81.71 curveto
170.99 81.44 179.27 81.48 187.52 82.16 curveto
170.00 63.17 147.57 48.82 123.01 40.82 curveto
102.64 34.09 80.33 31.50 59.33 36.85 curveto
43.89 40.56 29.23 49.12 19.89 62.17 curveto
11.01 74.35 7.24 89.94 8.70 104.88 curveto
closepath
0.486 0.608 0.239 setrgbcolor
fill
newpath
16.55 102.27 moveto
15.03 111.58 15.25 121.33 17.98 130.40 curveto
19.10 128.43 19.14 126.17 19.04 123.96 curveto
18.80 117.49 19.22 110.90 21.50 104.78 curveto
26.21 91.00 37.83 80.14 51.42 75.25 curveto
73.86 67.26 98.95 71.13 120.27 80.70 curveto
125.41 82.72 129.71 86.30 134.75 88.54 curveto
140.09 86.72 145.35 84.67 150.76 83.05 curveto
133.62 70.12 113.24 61.54 92.00 58.45 curveto
74.07 56.33 54.77 58.25 39.37 68.38 curveto
27.50 75.88 18.96 88.41 16.55 102.27 curveto
closepath
0.796 0.149 0.161 setrgbcolor
fill
%%EOF
